[00:00:00]: 
System Memory:
	Memory Load: 31%
	Available Physical Memory: 11133m/16286m
	Available Page File: 12900m/18718m
	Available Virtual Memory: 3976m/4095m
	Available Extended Virtual Memory: 0m
[00:00:00]: 
Process Memory:
	Peak Working Set Size: 28m
	Working Set Size: 28m
	Quota Peak Page Pool Usage: 227k
	Quota Page Pool Usage: 220k
	Quota Peak Non Paged Pool Usage:15k
	Quota Non Paged Pool Usage: 14k
	Page File Usage: 4m
	Peak Page File Usage: 5m
[00:00:00]: PersistRootStorage is now APP:Klei//DoNotStarveTogether/Cluster_1/Master/ 
[00:00:00]: Starting Up
[00:00:00]: Version: 226323
[00:00:00]: Current time: Mon Aug 07 22:30:20 2017

[00:00:00]: Don't Starve Together: 226323 WIN32
[00:00:00]: Build Date: 2284
[00:00:00]: Parsing command line
[00:00:00]: Command Line Arguments: -monitor_parent_process 7412 -persistent_storage_root APP:Klei/ -conf_dir DoNotStarveTogether -cluster Cluster_1 -fo -ownernetid 76561198090755999 -backup_log_count 10 -shard Master -sigprefix DST_Master 
[00:00:00]: Initializing distribution platform
[00:00:00]: Initializing Minidump handler
[00:00:00]: ....Done
[00:00:00]: ....Done
[00:00:00]: Fixing DPI
[00:00:00]: ...Done
[00:00:00]: THREAD - started 'GAClient' (6820)
[00:00:00]: CurlRequestManager::ClientThread::Main()
[00:00:00]: ProfileIndex:4.82
[00:00:00]: [Connect] PendingConnection::Reset(true)
[00:00:00]: Network tick rate: U=15(2), D=0
[00:00:00]: Network tick rate: U=15(2), D=0
[00:00:00]: Authorized application C:\Program Files (x86)\Steam\steamapps\common\Don't Starve Together\bin\dontstarve_dedicated_server_nullrenderer.exe is enabled in the firewall.
[00:00:00]: WindowsFirewall - Application already authorized
[00:00:00]: OnLoadPermissionList: APP:Klei//DoNotStarveTogether/client_save/blocklist.txt (Failure)
[00:00:00]: OnLoadPermissionList: APP:Klei//DoNotStarveTogether/client_save/adminlist.txt (Failure)
[00:00:00]: OnLoadUserIdList: APP:Klei//DoNotStarveTogether/client_save/whitelist.txt (Failure)
[00:00:00]: Offline user ID: OU_76561198090755999
[00:00:00]: THREAD - started 'StreamInput' (7268)
[00:00:00]: Token retrieved from: APP:Klei//DoNotStarveTogether/Cluster_1/cluster_token.txt
[00:00:00]: Token retrieved from: APP:Klei//DoNotStarveTogether/Cluster_1/cluster_token.txt
[00:00:01]: HardwareStats:
  OS                        
    name                      Microsoft Windows 10 Pro
    version                   10.0.15063
    architecture              64-bit
    platformSpecific          SP 0.0
  CPU                       
    numCores                  2
    features                  SSE,SSE2,SSE3,SSSE3,SSE41,SSE42,AVX
    name                      Intel(R) Core(TM) i5-3210M CPU @ 2.50GHz
    manufacturer              GenuineIntel
    clockSpeed                2501
  RAM                       
    megsOfRam                 16384
  GPU                       
    name                      AMD Radeon HD 7800M Series
    driverDate                20170424000000.000000-000
    megsOfRam                 1024
    refreshRate               0
    videoModeDescription      
    driverVersion             22.19.162.4

[00:00:01]: cGame::InitializeOnMainThread
[00:00:01]: Renderer initialize: Okay
[00:00:01]: AnimManager initialize: Okay
[00:00:01]: Buffers initialize: Okay
[00:00:01]: cDontStarveGame::DoGameSpecificInitialize()
[00:00:01]: GameSpecific initialize: Okay
[00:00:01]: cGame::StartPlaying
[00:00:01]: LOADING LUA
[00:00:01]: DoLuaFile scripts/main.lua
[00:00:01]: DoLuaFile loading buffer scripts/main.lua
[00:00:01]: running main.lua
	
[00:00:01]: loaded modindex	
[00:00:01]: ModIndex: Beginning normal load sequence for dedicated server.
	
[00:00:01]: DownloadMods(0)
[00:00:01]: modoverrides.lua enabling workshop-893652670	
[00:00:01]: modoverrides.lua enabling workshop-792211068	
[00:00:01]: ModIndex:GetModsToLoad inserting moddir, 	workshop-792211068	
[00:00:01]: ModIndex:GetModsToLoad inserting moddir, 	workshop-893652670	
[00:00:01]: Could not load mod_config_data/modconfiguration_workshop-792211068_CLIENT	
[00:00:01]: applying configuration_options from modoverrides.lua to mod workshop-893652670	
[00:00:01]: applying configuration_options from modoverrides.lua to mod workshop-792211068	
[00:00:01]: Loading mod: workshop-792211068 (Where Are You Now?) Version:1.0	
[00:00:01]: Could not load mod_config_data/modconfiguration_workshop-893652670_CLIENT	
[00:00:01]: applying configuration_options from modoverrides.lua to mod workshop-893652670	
[00:00:01]: applying configuration_options from modoverrides.lua to mod workshop-792211068	
[00:00:01]: Loading mod: workshop-893652670 (Asriel Dreemurr) Version:0.80	
[00:00:01]: Mod: workshop-893652670 (Asriel Dreemurr)	Loading modworldgenmain.lua	
[00:00:01]: Mod: workshop-893652670 (Asriel Dreemurr)	  Mod had no modworldgenmain.lua. Skipping.	
[00:00:01]: Mod: workshop-893652670 (Asriel Dreemurr)	Loading modmain.lua	
[00:00:01]: modimport: ../mods/workshop-893652670/scripts/asrielmod_skins.lua	
[00:00:01]: Mod: workshop-792211068 (Where Are You Now?)	Loading modworldgenmain.lua	
[00:00:01]: Mod: workshop-792211068 (Where Are You Now?)	  Mod had no modworldgenmain.lua. Skipping.	
[00:00:01]: Mod: workshop-792211068 (Where Are You Now?)	Loading modmain.lua	
[00:00:02]: LOADING LUA SUCCESS
[00:00:02]: PlayerDeaths could not load morgue	
[00:00:02]: PlayerHistory could not load player_history	
[00:00:02]: bloom_enabled	false	
[00:00:02]: loaded saveindex	
[00:00:02]: OnFilesLoaded()	
[00:00:02]: OnUpdatePurchaseStateComplete	
[00:00:05]: Mod: workshop-893652670 (Asriel Dreemurr)	Registering prefabs	
[00:00:05]: Mod: workshop-893652670 (Asriel Dreemurr)	  Registering prefab file: prefabs/asriel	
[00:00:05]: Mod: workshop-893652670 (Asriel Dreemurr)	    asriel	
[00:00:05]: Mod: workshop-893652670 (Asriel Dreemurr)	  Registering prefab file: prefabs/asriel_skins	
[00:00:05]: Mod: workshop-893652670 (Asriel Dreemurr)	    asriel_none	
[00:00:05]: Mod: workshop-893652670 (Asriel Dreemurr)	  Registering default mod prefab	
[00:00:05]: Mod: workshop-792211068 (Where Are You Now?)	Registering prefabs	
[00:00:05]: Mod: workshop-792211068 (Where Are You Now?)	  Registering default mod prefab	
[00:00:06]: 	Load FE	
[00:00:06]: 	Load FE: done	
[00:00:06]: ModIndex: Load sequence finished successfully.	
[00:00:06]: Reset() returning
[00:00:06]: [IPC] Signal 'DST_Master_Kill' opened  #000004BC
[00:00:06]: [IPC] Registering handler for signal #000004BC
[00:00:06]: [IPC] Handle #000004BC added to the Eventhandles
[00:00:06]: [IPC] Signal 'DST_Master_Starting' opened  #000004C0
[00:00:06]: [IPC] Sending signal... #000004C0
[00:00:08]: [200] Account Communication Success (6)
[00:00:08]: Received (KU_md6wbcgf) from TokenPurpose
[00:00:08]: Starting Dedicated Server Game	
[00:00:08]: Network tick rate: U=15(2), D=0
[00:00:08]: About to start a server with the following settings:
[00:00:08]:   Dedicated: true
[00:00:08]:   Online: true
[00:00:08]:   Passworded: false
[00:00:08]:   ServerPort: 10999
[00:00:08]:   SteamAuthPort: 8766
[00:00:08]:   SteamMasterServerPort: 27016
[00:00:08]:   ClanID: false
[00:00:08]:   ClanOnly: false
[00:00:08]:   ClanAdmin: false
[00:00:08]:   LanOnly: false
[00:00:08]:   FriendsOnly: true
[00:00:08]:   EnableAutosaver: true
[00:00:08]:   EncodeUserPath: true
[00:00:08]:   PVP: false
[00:00:08]:   Event: false
[00:00:08]:   MaxPlayers: 6
[00:00:08]:   GameMode: survival
[00:00:08]:   OverridenDNS: 
[00:00:08]:   PauseWhenEmpty: true
[00:00:08]:   VoteEnabled: false
[00:00:08]:   InternetBroadcasting: true
[00:00:08]:   Intent: cooperative
[00:00:08]: [Warning] Could not confirm port 10999 is open in the firewall. 
[00:00:08]: Could not load mod_config_data/modconfiguration_workshop-893652670	
[00:00:08]: Could not load mod_config_data/modconfiguration_workshop-792211068	
[00:00:08]: Online Server Started on port: 10999
[00:00:08]: unloading prefabs for mod MOD_workshop-893652670	
[00:00:08]: unloading prefabs for mod MOD_workshop-792211068	
[00:00:08]: Collecting garbage...
[00:00:08]: lua_gc took 0.04 seconds
[00:00:08]: ~ShardLuaProxy()
[00:00:08]: ~ItemServerLuaProxy()
[00:00:08]: ~InventoryLuaProxy()
[00:00:08]: ~NetworkLuaProxy()
[00:00:08]: ~SimLuaProxy()
[00:00:08]: lua_close took 0.04 seconds
[00:00:09]: ReleaseAll
[00:00:09]: ReleaseAll Finished
[00:00:09]: cGame::StartPlaying
[00:00:09]: LOADING LUA
[00:00:09]: DoLuaFile scripts/main.lua
[00:00:09]: DoLuaFile loading buffer scripts/main.lua
[00:00:09]: running main.lua
	
[00:00:09]: loaded modindex	
[00:00:09]: ModIndex: Beginning normal load sequence for dedicated server.
	
[00:00:09]: modoverrides.lua enabling workshop-893652670	
[00:00:09]: modoverrides.lua enabling workshop-792211068	
[00:00:09]: ModIndex:GetModsToLoad inserting moddir, 	workshop-792211068	
[00:00:09]: ModIndex:GetModsToLoad inserting moddir, 	workshop-893652670	
[00:00:09]: Could not load mod_config_data/modconfiguration_workshop-792211068	
[00:00:09]: applying configuration_options from modoverrides.lua to mod workshop-893652670	
[00:00:09]: applying configuration_options from modoverrides.lua to mod workshop-792211068	
[00:00:09]: Loading mod: workshop-792211068 (Where Are You Now?) Version:1.0	
[00:00:09]: Could not load mod_config_data/modconfiguration_workshop-893652670	
[00:00:09]: applying configuration_options from modoverrides.lua to mod workshop-893652670	
[00:00:09]: applying configuration_options from modoverrides.lua to mod workshop-792211068	
[00:00:09]: Loading mod: workshop-893652670 (Asriel Dreemurr) Version:0.80	
[00:00:09]: Mod: workshop-893652670 (Asriel Dreemurr)	Loading modworldgenmain.lua	
[00:00:09]: Mod: workshop-893652670 (Asriel Dreemurr)	  Mod had no modworldgenmain.lua. Skipping.	
[00:00:09]: Mod: workshop-893652670 (Asriel Dreemurr)	Loading modmain.lua	
[00:00:09]: modimport: ../mods/workshop-893652670/scripts/asrielmod_skins.lua	
[00:00:09]: Mod: workshop-792211068 (Where Are You Now?)	Loading modworldgenmain.lua	
[00:00:09]: Mod: workshop-792211068 (Where Are You Now?)	  Mod had no modworldgenmain.lua. Skipping.	
[00:00:09]: Mod: workshop-792211068 (Where Are You Now?)	Loading modmain.lua	
[00:00:09]: LOADING LUA SUCCESS
[00:00:09]: PlayerDeaths could not load morgue	
[00:00:09]: PlayerHistory could not load player_history	
[00:00:09]: bloom_enabled	false	
[00:00:09]: loaded saveindex	
[00:00:09]: OnFilesLoaded()	
[00:00:09]: OnUpdatePurchaseStateComplete	
[00:00:09]: 	Unload FE	
[00:00:09]: 	Unload FE done	
[00:00:10]: Mod: workshop-893652670 (Asriel Dreemurr)	Registering prefabs	
[00:00:10]: Mod: workshop-893652670 (Asriel Dreemurr)	  Registering prefab file: prefabs/asriel	
[00:00:10]: Mod: workshop-893652670 (Asriel Dreemurr)	    asriel	
[00:00:10]: Mod: workshop-893652670 (Asriel Dreemurr)	  Registering prefab file: prefabs/asriel_skins	
[00:00:10]: Mod: workshop-893652670 (Asriel Dreemurr)	    asriel_none	
[00:00:10]: Mod: workshop-893652670 (Asriel Dreemurr)	  Registering default mod prefab	
[00:00:11]: Mod: workshop-792211068 (Where Are You Now?)	Registering prefabs	
[00:00:11]: Mod: workshop-792211068 (Where Are You Now?)	  Registering default mod prefab	
[00:00:11]: 	LOAD BE	
[00:00:14]: 	LOAD BE: done	
[00:00:14]: Loading world: session/32417AF004F01C75/0000000029	
[00:00:15]: Save file is at version 4.77	
[00:00:15]: Begin Session: 32417AF004F01C75
[00:00:15]: saving to server_temp/server_save	
[00:00:15]: MiniMapComponent::AddAtlas( minimap/minimap_data.xml )
[00:00:15]: MiniMapComponent::AddAtlas( ../mods/workshop-893652670/images/map_icons/asriel.xml )
[00:00:16]: Loading Nav Grid	
[00:00:16]: setting 	summerlength	15	
[00:00:16]: setting 	isnightmaredawn	false	
[00:00:16]: setting 	elapseddaysinseason	6	
[00:00:16]: setting 	isfullmoon	false	
[00:00:16]: setting 	moisture	2050.2358398438	
[00:00:16]: setting 	springlength	20	
[00:00:16]: setting 	isnightmarewild	false	
[00:00:16]: setting 	moonphase	half	
[00:00:16]: setting 	precipitationrate	0	
[00:00:16]: setting 	iswet	false	
[00:00:16]: setting 	isnewmoon	false	
[00:00:16]: setting 	iswinter	true	
[00:00:16]: setting 	israining	false	
[00:00:16]: setting 	isnightmarewarn	false	
[00:00:16]: setting 	precipitation	none	
[00:00:16]: setting 	cavephase	day	
[00:00:16]: setting 	moistureceil	2517.0007324219	
[00:00:16]: setting 	isday	true	
[00:00:16]: setting 	iscaveday	true	
[00:00:16]: setting 	season	winter	
[00:00:16]: setting 	timeinphase	0.92490635553996	
[00:00:16]: setting 	temperature	-22.805853313128	
[00:00:16]: setting 	isnightmarecalm	false	
[00:00:16]: setting 	isnight	false	
[00:00:16]: setting 	isdusk	false	
[00:00:16]: setting 	iscavedusk	false	
[00:00:16]: setting 	isautumn	false	
[00:00:16]: setting 	issnowing	false	
[00:00:16]: setting 	iswaxingmoon	true	
[00:00:16]: setting 	pop	0.50396041581966	
[00:00:16]: setting 	snowlevel	1	
[00:00:16]: setting 	issnowcovered	true	
[00:00:16]: setting 	autumnlength	20	
[00:00:16]: setting 	phase	day	
[00:00:16]: setting 	nightmaretime	0	
[00:00:16]: setting 	winterlength	15	
[00:00:16]: setting 	isspring	false	
[00:00:16]: setting 	nightmarephase	none	
[00:00:16]: setting 	remainingdaysinseason	9	
[00:00:16]: setting 	cycles	26	
[00:00:16]: setting 	iscavenight	false	
[00:00:16]: setting 	nightmaretimeinphase	0	
[00:00:16]: setting 	wetness	0	
[00:00:16]: setting 	time	0.28903323610624	
[00:00:16]: setting 	issummer	false	
[00:00:24]: Reconstructing topology	
[00:00:24]: 	...Sorting points	
[00:00:24]: 	...Sorting edges	
[00:00:24]: 	...Connecting nodes	
[00:00:24]: 	...Validating connections	
[00:00:24]: 	...Housekeeping	
[00:00:24]: 	...Done!	
[00:00:24]: 1 uploads added to server. From server_temp
[00:00:24]: About to start a shard with these settings:
[00:00:24]:   ShardName: [SHDMASTER]
[00:00:24]:   ShardID: 1
[00:00:24]:   ShardRole: MASTER
[00:00:24]:   MasterHost: (null)
[00:00:24]:   MasterBind: 127.0.0.1
[00:00:24]:   MasterPort: 10888
[00:00:24]: [Shard] Starting master server
[00:00:24]: [Warning] Could not confirm port 10888 is open in the firewall. 
[00:00:24]: [Shard] Shard server started on port: 10888
[00:00:24]: [IPC] Signal 'DST_Master_Ready' opened  #0000045C
[00:00:24]: [IPC] Sending signal... #0000045C
[00:00:24]: Telling Client our new session identifier: 32417AF004F01C75
[00:00:24]: ModIndex: Load sequence finished successfully.	
[00:00:24]: Reset() returning
[00:00:24]: [Steam] SteamGameServer_Init(8766, 10999, 27016)
[00:00:25]: [Steam] SteamGameServer_Init success
[00:00:25]: Validating portal[3] <-> 4041057775[3] (inactive)	
[00:00:25]: Validating portal[2] <-> 4041057775[2] (inactive)	
[00:00:25]: Validating portal[1] <-> 4041057775[1] (inactive)	
[00:00:25]: Validating portal[5] <-> 4041057775[5] (inactive)	
[00:00:25]: Validating portal[9] <-> 4041057775[9] (inactive)	
[00:00:25]: Validating portal[10] <-> 4041057775[10] (inactive)	
[00:00:25]: Validating portal[8] <-> 4041057775[8] (inactive)	
[00:00:25]: Validating portal[6] <-> 4041057775[6] (inactive)	
[00:00:25]: Validating portal[7] <-> 4041057775[7] (inactive)	
[00:00:25]: Validating portal[4] <-> 4041057775[4] (inactive)	
[00:00:25]: Sim paused
[00:00:27]: [Shard] Slave Caves(4041057775) connected: [LAN] 127.0.0.1
[00:00:29]: [Shard] Slave Caves(4041057775) ready!
[00:00:29]: World 4041057775 is now connected	
[00:00:29]: Validating portal[3] <-> 4041057775[3] (disabled)	
[00:00:29]: Validating portal[2] <-> 4041057775[2] (disabled)	
[00:00:29]: Validating portal[1] <-> 4041057775[1] (disabled)	
[00:00:29]: Validating portal[5] <-> 4041057775[5] (disabled)	
[00:00:29]: Validating portal[9] <-> 4041057775[9] (disabled)	
[00:00:29]: Validating portal[10] <-> 4041057775[10] (disabled)	
[00:00:29]: Validating portal[8] <-> 4041057775[8] (disabled)	
[00:00:29]: Validating portal[6] <-> 4041057775[6] (disabled)	
[00:00:29]: Validating portal[7] <-> 4041057775[7] (disabled)	
[00:00:29]: Validating portal[4] <-> 4041057775[4] (disabled)	
[00:00:32]: New incoming connection 127.0.0.1|62292 <6042820697660906803>
[00:00:32]: Client connected from [LAN] 127.0.0.1|62292 <6042820697660906803>
[00:00:32]: ValidateGameSessionToken pgs-sing^KU_md6wbcgf^DontStarveTogether^Hdj3HpWXaaTU6ivXxh+lYMSNBjWsnyXsdLdAEMrsr4Y= for <6042820697660906803>
[00:00:32]: Client authenticated: (KU_md6wbcgf) Hellish Pony
[00:00:32]: [Steam] Authenticated host '76561198090755999'
[00:00:34]: [Shard] Read save location file for (KU_md6wbcgf)
[00:00:44]: Resuming user: session/32417AF004F01C75/A7M2E6T9CQL9/0000000029
[00:00:44]: Spawning player at: [Load] (-215.45, 0.00, 9.77)	
[00:00:44]: Sim unpaused
[00:01:14]: Validating portal[6] <-> 4041057775[6] (active)	
[00:01:15]: Activating portal[6] to 4041057775	
[00:01:15]: Serializing user: session/32417AF004F01C75/A7M2E6T9CQL9/0000000030
[00:01:15]: [Shard] Migration request: (KU_md6wbcgf) to Caves(4041057775)
[00:01:15]: [Shard] Begin migration #1 for (KU_md6wbcgf)
[00:01:15]: [Shard] #1 [SHDMASTER](1) -> Caves(4041057775)
[00:01:15]: [Shard] #1 <- session/32417AF004F01C75/A7M2E6T9CQL9/0000000030
[00:01:15]: CloseConnectionWithReason: ID_DST_SHARD_SILENT_DISCONNECT
[00:01:15]: [Steam] SendUserDisconnect for '76561198090755999'
[00:01:15]: [Shard] (KU_md6wbcgf) disconnected from [SHDMASTER](1)
[00:01:18]: [Shard] Completed migration #1 for player (KU_md6wbcgf)
[00:01:18]: [Shard] Writing save location file for (KU_md6wbcgf)
[00:01:30]: [Shard] Begin migration #2 for (KU_md6wbcgf)
[00:01:30]: [Shard] #2 Caves(4041057775) -> [SHDMASTER](1)
[00:01:30]: [Shard] #2 -> session/32417AF004F01C75/A7M2E6T9CQL9/0000000030
[00:01:30]: [Shard] Received migration #2 data for (KU_md6wbcgf)
[00:01:30]: [Shard] (KU_md6wbcgf) disconnected from Caves(4041057775)
[00:01:31]: New incoming connection 127.0.0.1|62011 <5099312983994960515>
[00:01:31]: Client connected from [LAN] 127.0.0.1|62011 <5099312983994960515>
[00:01:31]: ValidateGameSessionToken pgs-sing^KU_md6wbcgf^DontStarveTogether^A5ZUEGitWxlH/JpnrDQ19spdYxDTvdDVh/e8qFaL0n4= for <5099312983994960515>
[00:01:32]: Client authenticated: (KU_md6wbcgf) Hellish Pony
[00:01:32]: [Steam] Authenticated host '76561198090755999'
[00:01:32]: [Shard] Completed incoming migration #2 for (KU_md6wbcgf)
[00:01:32]: [Shard] Completed migration #2 for player (KU_md6wbcgf)
[00:01:32]: [Shard] Writing save location file for (KU_md6wbcgf)
[00:01:39]: Resuming user: session/32417AF004F01C75/A7M2E6T9CQL9/0000000030
[00:01:39]: Player will spawn close to portal #6	
[00:01:39]: Spawning player at: [Load] (-220.56, 0.00, -78.28)	
[00:02:26]: [P2P] Session request for '76561198273867896'
[00:02:30]: [P2P] Create session: 144.41.108.127|1 '76561198273867896'
[00:02:30]: [P2P] Received from 144.41.108.127|1 '76561198273867896'
[00:02:30]: [P2P] Sent to 144.41.108.127|1 '76561198273867896'
[00:02:33]: New incoming connection 144.41.108.127|1 <3548882382161583586>
[00:02:33]: Client connected from 144.41.108.127|1 <3548882382161583586>
[00:02:33]: ValidateGameSessionToken pgs-usc^KU_s7U8l6hp^DontStarveTogether^cUCR1uReJs+2/bzfZy5Y8QqY5yZgkW/gqs3/lPV6/t4= for <3548882382161583586>
[00:02:36]: Client authenticated: (KU_s7U8l6hp) Marijka
[00:02:36]: [Steam] SendUserConnectAndAuthenticate for '76561198273867896'
[00:02:37]: [Steam] Authenticated client '76561198273867896'
[00:02:41]: [Shard] Read save location file for (KU_s7U8l6hp)
[00:04:10]: Resuming user: session/32417AF004F01C75/A7MOEU4BOQNJ/0000000029
[00:04:10]: Spawning player at: [Load] (-214.84, 0.00, 13.00)	
[00:06:27]: Serializing user: session/32417AF004F01C75/A7M2E6T9CQL9/0000000030
[00:06:27]: Serializing user: session/32417AF004F01C75/A7MOEU4BOQNJ/0000000030
[00:06:27]: Serializing world: session/32417AF004F01C75/0000000030
[00:14:28]: Serializing user: session/32417AF004F01C75/A7M2E6T9CQL9/0000000031
[00:14:28]: Serializing user: session/32417AF004F01C75/A7MOEU4BOQNJ/0000000031
[00:14:28]: Serializing world: session/32417AF004F01C75/0000000031
[00:22:29]: Serializing user: session/32417AF004F01C75/A7M2E6T9CQL9/0000000032
[00:22:29]: Serializing user: session/32417AF004F01C75/A7MOEU4BOQNJ/0000000032
[00:22:29]: Serializing world: session/32417AF004F01C75/0000000032
[00:30:08]: [200] Account Communication Success (6)
[00:30:08]: Received (KU_md6wbcgf) from TokenPurpose
[00:30:29]: Serializing user: session/32417AF004F01C75/A7M2E6T9CQL9/0000000033
[00:30:29]: Serializing user: session/32417AF004F01C75/A7MOEU4BOQNJ/0000000033
[00:30:30]: Serializing world: session/32417AF004F01C75/0000000033
[00:38:30]: Serializing user: session/32417AF004F01C75/A7M2E6T9CQL9/0000000034
[00:38:30]: Serializing user: session/32417AF004F01C75/A7MOEU4BOQNJ/0000000034
[00:38:31]: Serializing world: session/32417AF004F01C75/0000000034
[00:46:31]: Serializing user: session/32417AF004F01C75/A7M2E6T9CQL9/0000000035
[00:46:31]: Serializing user: session/32417AF004F01C75/A7MOEU4BOQNJ/0000000035
[00:46:32]: Serializing world: session/32417AF004F01C75/0000000035
[00:54:32]: Serializing user: session/32417AF004F01C75/A7M2E6T9CQL9/0000000036
[00:54:32]: Serializing user: session/32417AF004F01C75/A7MOEU4BOQNJ/0000000036
[00:54:32]: Serializing world: session/32417AF004F01C75/0000000036
[01:00:08]: [200] Account Communication Success (6)
[01:00:08]: Received (KU_md6wbcgf) from TokenPurpose
[01:02:33]: Serializing user: session/32417AF004F01C75/A7M2E6T9CQL9/0000000037
[01:02:33]: Serializing user: session/32417AF004F01C75/A7MOEU4BOQNJ/0000000037
[01:02:33]: Serializing world: session/32417AF004F01C75/0000000037
[01:10:33]: Serializing user: session/32417AF004F01C75/A7M2E6T9CQL9/0000000038
[01:10:33]: Serializing user: session/32417AF004F01C75/A7MOEU4BOQNJ/0000000038
[01:10:34]: Serializing world: session/32417AF004F01C75/0000000038
[01:13:28]: Could not find anim [death] in bank [ghost]
[01:13:28]: Serializing user: session/32417AF004F01C75/A7MOEU4BOQNJ/0000000039
[01:14:45]: Activating portal[6] to 4041057775	
[01:14:45]: Serializing user: session/32417AF004F01C75/A7MOEU4BOQNJ/0000000039
[01:14:45]: [Shard] Migration request: (KU_s7U8l6hp) to Caves(4041057775)
[01:14:45]: [Shard] Begin migration #3 for (KU_s7U8l6hp)
[01:14:45]: [Shard] #3 [SHDMASTER](1) -> Caves(4041057775)
[01:14:45]: [Shard] #3 <- session/32417AF004F01C75/A7MOEU4BOQNJ/0000000039
[01:14:45]: CloseConnectionWithReason: ID_DST_SHARD_SILENT_DISCONNECT
[01:14:45]: [Steam] SendUserDisconnect for '76561198273867896'
[01:14:45]: [Shard] (KU_s7U8l6hp) disconnected from [SHDMASTER](1)
[01:14:55]: [Shard] Completed migration #3 for player (KU_s7U8l6hp)
[01:14:55]: [Shard] Writing save location file for (KU_s7U8l6hp)
[01:16:09]: [Shard] Begin migration #4 for (KU_s7U8l6hp)
[01:16:09]: [Shard] #4 Caves(4041057775) -> [SHDMASTER](1)
[01:16:09]: [Shard] #4 -> session/32417AF004F01C75/A7MOEU4BOQNJ/0000000039
[01:16:09]: [Shard] Received migration #4 data for (KU_s7U8l6hp)
[01:16:09]: [Shard] (KU_s7U8l6hp) disconnected from Caves(4041057775)
[01:16:15]: New incoming connection 213.138.83.156|58518 <6971585222805858837>
[01:16:15]: Client connected from 213.138.83.156|58518 <6971585222805858837>
[01:16:15]: ValidateGameSessionToken pgs-usc^KU_s7U8l6hp^DontStarveTogether^yRH9058n/sOgE5RiN7hA75JY9A7lRlGpLj6v2rScdRM= for <6971585222805858837>
[01:16:18]: Client authenticated: (KU_s7U8l6hp) Marijka
[01:16:18]: [Steam] SendUserConnectAndAuthenticate for '76561198273867896'
[01:16:19]: [Steam] Authenticated client '76561198273867896'
[01:16:19]: [Shard] Completed incoming migration #4 for (KU_s7U8l6hp)
[01:16:19]: [Shard] Completed migration #4 for player (KU_s7U8l6hp)
[01:16:19]: [Shard] Writing save location file for (KU_s7U8l6hp)
[01:17:28]: Resuming user: session/32417AF004F01C75/A7MOEU4BOQNJ/0000000039
[01:17:28]: Could not find anim [idle_loop] in bank [ghost]
[01:17:28]: Player will spawn close to portal #6	
[01:17:28]: Spawning player at: [Load] (-218.92, 0.00, -78.21)	
[01:18:34]: Serializing user: session/32417AF004F01C75/A7M2E6T9CQL9/0000000039
[01:18:34]: Serializing user: session/32417AF004F01C75/A7MOEU4BOQNJ/0000000039
[01:18:35]: Serializing world: session/32417AF004F01C75/0000000039
[01:21:53]: Could not find anim [idle_loop] in bank [ghost]
[01:21:56]: Serializing user: session/32417AF004F01C75/A7MOEU4BOQNJ/0000000040
[01:24:49]: [P2P] Session timed out for '76561198273867896'
[01:24:49]: [P2P] Remove session: 144.41.108.127|1 '76561198273867896'
[01:26:35]: Serializing user: session/32417AF004F01C75/A7M2E6T9CQL9/0000000040
[01:26:35]: Serializing user: session/32417AF004F01C75/A7MOEU4BOQNJ/0000000040
[01:26:35]: Serializing world: session/32417AF004F01C75/0000000040
[01:30:10]: [200] Account Communication Success (6)
[01:30:10]: Received (KU_md6wbcgf) from TokenPurpose
[01:34:36]: Serializing user: session/32417AF004F01C75/A7M2E6T9CQL9/0000000041
[01:34:36]: Serializing user: session/32417AF004F01C75/A7MOEU4BOQNJ/0000000041
[01:34:36]: Serializing world: session/32417AF004F01C75/0000000041
[01:42:37]: Serializing user: session/32417AF004F01C75/A7M2E6T9CQL9/0000000042
[01:42:37]: Serializing user: session/32417AF004F01C75/A7MOEU4BOQNJ/0000000042
[01:42:37]: Serializing world: session/32417AF004F01C75/0000000042
[01:46:05]: [Steam] SendUserDisconnect for '76561198273867896'
[01:46:05]: [Shard] (KU_s7U8l6hp) disconnected from [SHDMASTER](1)
[01:46:05]: Serializing user: session/32417AF004F01C75/A7MOEU4BOQNJ/0000000043
[01:50:37]: Serializing user: session/32417AF004F01C75/A7M2E6T9CQL9/0000000043
[01:50:38]: Serializing world: session/32417AF004F01C75/0000000043
[01:50:44]: [Steam] SendUserDisconnect for '76561198090755999'
[01:50:44]: [Shard] (KU_md6wbcgf) disconnected from [SHDMASTER](1)
[01:50:44]: [IPC] Received shutdown signal.
[01:50:44]: Serializing user: session/32417AF004F01C75/A7M2E6T9CQL9/0000000044
[01:50:45]: Serializing world: session/32417AF004F01C75/0000000044
[01:50:45]: Truncating to snapshot #44...
[01:50:45]:  - session/32417AF004F01C75/0000000024
[01:50:45]:  - session/32417AF004F01C75/0000000025
[01:50:45]:  - session/32417AF004F01C75/0000000026
[01:50:45]:  - session/32417AF004F01C75/0000000027
[01:50:45]:  - session/32417AF004F01C75/0000000028
[01:50:45]:  - session/32417AF004F01C75/0000000029
[01:50:45]:  - session/32417AF004F01C75/0000000030
[01:50:45]:  - session/32417AF004F01C75/0000000031
[01:50:45]:  - session/32417AF004F01C75/0000000032
[01:50:45]:  - session/32417AF004F01C75/0000000033
[01:50:45]:  - session/32417AF004F01C75/0000000034
[01:50:45]:  - session/32417AF004F01C75/0000000035
[01:50:45]:  - session/32417AF004F01C75/0000000036
[01:50:45]:  - session/32417AF004F01C75/0000000037
[01:50:45]:  - session/32417AF004F01C75/0000000038
[01:50:45]:  - session/32417AF004F01C75/A7M2E6T9CQL9/0000000038
[01:50:45]:  - session/32417AF004F01C75/A7M2E6T9CQL9/0000000037
[01:50:45]:  - session/32417AF004F01C75/A7M2E6T9CQL9/0000000036
[01:50:45]:  - session/32417AF004F01C75/A7M2E6T9CQL9/0000000035
[01:50:45]:  - session/32417AF004F01C75/A7M2E6T9CQL9/0000000034
[01:50:45]:  - session/32417AF004F01C75/A7M2E6T9CQL9/0000000033
[01:50:45]:  - session/32417AF004F01C75/A7M2E6T9CQL9/0000000032
[01:50:45]:  - session/32417AF004F01C75/A7M2E6T9CQL9/0000000031
[01:50:45]:  - session/32417AF004F01C75/A7M2E6T9CQL9/0000000030
[01:50:45]:  - session/32417AF004F01C75/A7M2E6T9CQL9/0000000029
[01:50:45]:  - session/32417AF004F01C75/A7M2E6T9CQL9/0000000028
[01:50:45]:  - session/32417AF004F01C75/A7M2E6T9CQL9/0000000027
[01:50:45]:  - session/32417AF004F01C75/A7M2E6T9CQL9/0000000026
[01:50:45]:  - session/32417AF004F01C75/A7M2E6T9CQL9/0000000025
[01:50:45]:  - session/32417AF004F01C75/A7M2E6T9CQL9/0000000024
[01:50:45]:  - session/32417AF004F01C75/A7MOEU4BOQNJ/0000000038
[01:50:45]:  - session/32417AF004F01C75/A7MOEU4BOQNJ/0000000037
[01:50:45]:  - session/32417AF004F01C75/A7MOEU4BOQNJ/0000000036
[01:50:45]:  - session/32417AF004F01C75/A7MOEU4BOQNJ/0000000035
[01:50:45]:  - session/32417AF004F01C75/A7MOEU4BOQNJ/0000000034
[01:50:45]:  - session/32417AF004F01C75/A7MOEU4BOQNJ/0000000033
[01:50:45]:  - session/32417AF004F01C75/A7MOEU4BOQNJ/0000000032
[01:50:45]:  - session/32417AF004F01C75/A7MOEU4BOQNJ/0000000031
[01:50:45]:  - session/32417AF004F01C75/A7MOEU4BOQNJ/0000000030
[01:50:45]:  - session/32417AF004F01C75/A7MOEU4BOQNJ/0000000029
[01:50:45]:  - session/32417AF004F01C75/A7MOEU4BOQNJ/0000000028
[01:50:45]:  - session/32417AF004F01C75/A7MOEU4BOQNJ/0000000027
[01:50:45]:  - session/32417AF004F01C75/A7MOEU4BOQNJ/0000000026
[01:50:45]:  - session/32417AF004F01C75/A7MOEU4BOQNJ/0000000025
[01:50:45]:  - session/32417AF004F01C75/A7MOEU4BOQNJ/0000000024
[01:50:45]:    45 file(s) removed
[01:50:45]: unloading prefabs for mod MOD_workshop-893652670	
[01:50:45]: unloading prefabs for mod MOD_workshop-792211068	
[01:50:45]: [Shard] Stopping shard mode
[01:50:45]: Collecting garbage...
[01:50:45]: lua_gc took 0.16 seconds
[01:50:45]: ~ShardLuaProxy()
[01:50:45]: ~ItemServerLuaProxy()
[01:50:45]: ~InventoryLuaProxy()
[01:50:45]: ~NetworkLuaProxy()
[01:50:45]: ~SimLuaProxy()
[01:50:46]: lua_close took 0.34 seconds
[01:50:46]:  Manager - ORPHANED UNKNOWN RESOURCES:
[01:50:46]: shaders/ui_yuv.ksh - 1
[01:50:46]: CurlRequestManager::ClientThread::Main() complete
[01:50:46]: HttpClient2 discarded 1 callbacks.
[01:50:46]: Shutting down
